INDEX VERSION 1.131+C:\Users\Santosh\Documents\workspace-spring-tool-suite-4-4.13.0.RELEASE\Junit\.metadata\.plugins\org.eclipse.jdt.core
671328322.index
2548117582.index
3107743774.index
1245217186.index
1319320428.index
1902043942.index
1458922727.index
297088359.index
2365537272.index
1213696796.index
2243926373.index
2510030425.index
572328033.index
2171453196.index
980005907.index
3487203508.index
2655070157.index
1080633332.index
3550448873.index
2819199773.index
2397593559.index
3665726472.index
2073644796.index
1414475041.index
2026302717.index
3716384127.index
515464084.index
1865797976.index
3472835838.index
1210206792.index
3396774311.index
2174844982.index
755262957.index
1080863133.index
3375933536.index
149582351.index
380835894.index
3254699610.index
3569715745.index
1904677775.index
1449457531.index
394114634.index
1815740962.index
894691143.index
3860776793.index
210470686.index
3494546228.index
2067608821.index
3892396116.index
3009960003.index
3935454879.index
1951535115.index
2505256086.index
1981203871.index
1294457358.index
1679003782.index
2645243768.index
1467732133.index
1174896108.index
785433522.index
2719183066.index
2730271560.index
3365378561.index
1227443020.index
368489368.index
909016046.index
4248387199.index
3940726626.index
1731315177.index
1222033317.index
208596103.index
178192506.index
783132249.index
780550758.index
213766001.index
1634418141.index
1848725893.index
3526106841.index
3183964480.index
706743116.index
1078102514.index
1247418218.index
2976611796.index
2722367252.index
1252613301.index
