<?xml version="1.0" encoding="UTF-8"?>
<session version="1.0">
<refactoring accessors="true" comment="Delete element from project &apos;01-SB-Rest_Junit&apos;&#x0D;&#x0A;- Original project: &apos;01-SB-Rest_Junit&apos;&#x0D;&#x0A;- Original element: &apos;com.example.demo.ApplicationTests.java&apos;" description="Delete element" element1="/src\/test\/java=/optional=/true=/=/maven.pomderived=/true=/=/test=/true=/&lt;com.example.demo{ApplicationTests.java" elements="1" flags="589830" id="org.eclipse.jdt.ui.delete" resources="0" stamp="1646651188604" subPackages="false" version="1.0"/>
</session>